C:\Users\adria\OneDrive\Docencia\Programacion II\Prácticas\Soluciones\EjemplosJava\src\main\java\es\ujaen\prog2\e2Clases\ClasePrueba.java
C:\Users\adria\OneDrive\Docencia\Programacion II\Prácticas\Soluciones\EjemplosJava\src\main\java\es\ujaen\prog2\e2Clases\Ejemplo2.java
C:\Users\adria\OneDrive\Docencia\Programacion II\Prácticas\Soluciones\EjemplosJava\src\main\java\es\ujaen\prog2\recomendaciones\Recomendaciones.java
C:\Users\adria\OneDrive\Docencia\Programacion II\Prácticas\Soluciones\EjemplosJava\src\main\java\es\ujaen\prog2\e4Referencias\Ejemplo4.java
C:\Users\adria\OneDrive\Docencia\Programacion II\Prácticas\Soluciones\EjemplosJava\src\main\java\es\ujaen\prog2\e5MenusDeConsola\Ejemplo5.java
C:\Users\adria\OneDrive\Docencia\Programacion II\Prácticas\Soluciones\EjemplosJava\src\main\java\es\ujaen\prog2\e1Tipos\Ejemplo1.java
C:\Users\adria\OneDrive\Docencia\Programacion II\Prácticas\Soluciones\EjemplosJava\src\main\java\es\ujaen\prog2\e3EstructurasDeDatos\Ejemplo3.java
C:\Users\adria\OneDrive\Docencia\Programacion II\Prácticas\Soluciones\EjemplosJava\src\main\java\es\ujaen\prog2\ejemplosjava\Main.java
